[
	"Happy birthday",
	"Gëzuar ditëlindjen",
	"Zorionak",
	"З днем ​​нараджэння",
	"Sretan rođendan",
	"Честит рожден ден",
	"Per molts anys",
	"Sretan rođendan",
	"Šťastné narozeniny",
	"Tillykke med fødselsdagen",
	"Gelukkige verjaardag",
	"Palju õnne sünnipäevaks",
	"Hyvää syntymäpäivää",
	"Bon anniversaire",
	"Feliz cumpreanos",
	"Alles Gute zum Geburtstag",
	"Χρόνια πολλά",
	"Boldog születésnapot",
	"Til hamingju með afmælið",
	"Lá breithe shona duit",
	"Buon compleanno",
	"Daudz laimes dzimšanas dienā",
	"Su gimtadieniu",
	"Среќен роденден",
	"Gratulerer med dagen",
	"Wszystkiego najlepszego z okazji urodzin",
	"Feliz aniversário",
	"La mulți ani",
	"С днем ​​рождения",
	"Срећан рођендан",
	"Šťastné narodeniny",
	"Vse najboljše",
	"Feliz cumpleaños",
	"Grattis på födelsedagen",
	"З Днем Народження",
	"Pen-blwydd hapus",
	"מזל דיין געבורסטאָג",
	"Ծնունդդ շնորհավոր",
	"Ad günün mübarək",
	"শুভ জন্মদিন",
	"生日快乐",
	"祝你生日快樂",
	"გილოცავთ დაბადების დღეს",
	"જન્મદિવસ ની શુભકામના",
	"जन्मदिन की शुभकामनाएं",
	"Zoo siab hnub yug",
	"お誕生日おめでとうございます",
	"ಜನ್ಮದಿನದ ಶುಭಾಶಯಗಳು",
	"Туылған күніңмен",
	"រីករាយ​ថ្ងៃ​កំណើត",
	"생일 축하",
	"ສຸກ​ສັນ​ວັນ​ເກີດ",
	"ജന്മദിനാശംസകൾ",
	"वाढदिवसाच्या शुभेच्छा",
	"Төрсөн өдрийн мэнд",
	"जन्मदिनको",
	"සුබ උපන් දිනයක්",
	"Зодрӯз муборак",
	"இனிய பிறந்த நாள் நல்வாழ்த்துக்கள்",
	"పుట్టినరోజు శుభాకాంక్షలు",
	"สุขสันต์วันเกิด",
	"Tug'ilgan kun muborak bo'lsin",
	"Chúc mừng sinh nhật",
	"Doğum günün kutlu olsun",
	"Gelukkige verjaarsdag",
	"Tsiku labwino lobadwa",
	"Barka da ranar haihuwa",
	"Ezi ncheta ọmụmụ",
	"Letsatsi le monate la tsoalo",
	"Dhalasho wacan",
	"Furaha ya kuzaliwa",
	"O ku ojo ibi",
	"Usuku olumnandi lokuzalwa",
	"Malipayon nga adlaw nga natawhan",
	"Maligayang kaarawan",
	"Selamat ulang tahun",
	"Tratry ny tsingerintaona nahaterahana",
	"Selamat Hari lahir",
	"Huritau hari",
	"Feliĉan naskiĝtagon",
	"Bòn fèt",
	"Felix dies natalis"
]
